{
  "type": "service_account",
  "project_id": "economizeiapp",
  "private_key_id": "45f0b6ae6d36ffd34c3951c88adc7971e1ae428b",
  "private_key": "-----BEGIN PRIVATE KEY-----\nMIIEvQIBADANBgkqhkiG9w0BAQEFAASCBKcwggSjAgEAAoIBAQCd4n15+36/MviM\nCRxn1yJDWUgGRIF5gre+DoKcg+5K3HybmZ4kySrDn4iBe2JYrDOeXD2u9f6NPHFY\n3EHL5elIV9vW7ZiYIzOFrIyQFB5UhpHJpKDxSO4Tw1WB8MV9JdZQiK2wzBYFKdYX\nQ4setGItehD15fxZcPFbLGVmY4JufmgveZrsHp21CBXklxtbexwVb/4ngcsDk2tm\noV10AEMI7k2N+vlLvKl3Qt/7rEUy4r78a3fR3rsoG33j4mWIdXX6ogIaKyb0OQu9\nftYeJCSxlV1wnEKyEA6xbXCT7mggFo0uc3he08J1YHNpm6ZoSVnZNKabzunl4PXI\nW6cLvbajAgMBAAECggEAH5I3xxmsSa12mAIGZRlW56LFzUMLpPGnrmCWa5fSIbQf\nUroQLojvfTi8gi/bBaJBnCwTxZW5NiLdA4jfu1cZI/c1pa/TMLDxT4ymevUa74oN\nQwYhjL4ppVgNFDPCOflD9syt9smIqbWo8vP1sMkfTLq5A4LeyD/Wc4XYLPY/Ebry\ny02KmbDRrE23u8WPQ+QS9NXXQyEcDdRVnyrOfXtUxh/dBjIfnoY44r25ELmXyxZt\nn8EwE8G1vHewB4qjC8PYNfOTaDNuSF2jOOWuuku30TzX6IcANOY1+2mDIzJ/MlW+\nHHYk5eTZjcaQ53V5xlJgadjmr3O7gOs0CU9E1jfjQQKBgQDN2gVs9iGaTce1cqyn\nXAnzGIH+2vOlSC+KCN9cJy5Reu5xF3TcYZPuWtyQC1oXUmW835Rddagpg16JQWoW\nWBvybchI8O6sU7TkZF5F4YekSxh7zWvQ/BPdqLNGFGKwveZaZL7cbATPgj2NiQy0\n3sqV5GZk3cCZub7TI9lHKnuXwwKBgQDEWQCnewyiQXbMmR2sA5ikcrASJoOnXUPk\nvGTuA4ywTOrg0WpHpMGKoH/yAgumQUIPBXsKPsxenaiIRar9bdOz6/Lgcwp2D1ZQ\ncDgIHt7+sSLJCUdJBbyH5FghiZz6J+X/Xnm5nuSapDboVoodKWHhCe+XgvmvgflK\nHKQCl9BXoQKBgQDK3u8x73A2bik/vYBCgAaeOa0Dyi0M2xNe6leWrlaLnqeXdRKK\njvAHnCx7GXT0PxRdC8tgQDA2mW11v64Zz0PbrC4TFL9jvissW249WIMhe5Dpkg2L\nrKK3dScZDcYlgUGgHGGtQheLmkOnVUXciyUEjFANYC4MUm6qD053QHsFmQKBgFFa\nVy0NjNSFr0Vig6rL6qjoZA+BKbdkq0bQ0DjV+6rok8EGw7RfjVl02s5ZDp6aF1bF\n/I7oKiFhzXx48ToEEV1Q+9cHk2QLQsYdWPn0YIzCtBj74S9eUxkzAVkT/Zigg2ll\nqaXBMhLoy19EzAD9LnLhfQYX3IBdp/6PE12HrWlBAoGAWfpyOAq01yEHpeKybKI1\ntcr0Z08p1N0nocy6O/8VAFyFHWN0Ees2TIqRrhRMjTDDRCdd7i6r7N5ZE786YSH5\nw2x9sqLgI4jiESqVIi2V+oIkUWzy9a0/3dScYni/ewXEXphZ96jk4awVbl99aeux\nTFYB2jO7WNHs6j7Uktcatuk=\n-----END PRIVATE KEY-----\n",
  "client_email": "firebase-crashreporting-j9ajl@economizeiapp.iam.gserviceaccount.com",
  "client_id": "113544655462038210622",
  "auth_uri": "https://accounts.google.com/o/oauth2/auth",
  "token_uri": "https://accounts.google.com/o/oauth2/token",
  "auth_provider_x509_cert_url": "https://www.googleapis.com/oauth2/v1/certs",
  "client_x509_cert_url": "https://www.googleapis.com/robot/v1/metadata/x509/firebase-crashreporting-j9ajl%40economizeiapp.iam.gserviceaccount.com"
}
